
ff: parsing domain file
domain 'TALKING' defined
 ... done.
ff: parsing problem file
problem 'FIVE' defined
 ... done.



no optimization required. skipping criterion.


no metric specified. plan length assumed.

checking for cyclic := effects --- OK.

ff: search configuration is EHC, if that fails then  best-first on 1*g(s) + 5*h(s) where
    metric is  plan length

Cueing down from goal distance:   10 into depth [1]

********* SELECTED ACTION ****************************
GESTIONAR JUAN ISABEL CITA NEUTRAL SOBRESALTO NEUTRAL PEDIR-CITA REGULAR ABIERTA TOKEN

********* NEXT STATE *********************************
(NOT-ESCENARIOTERMINADO CITA)
(NOT-ESCENARIOTERMINADO ENFADO)
(NOT-ESCENARIOTERMINADO SPOILER)
(FEEL JUAN NEUTRAL)
(IN ISABEL CITA)
(IN JUAN CITA)
(TURNO ISABEL TOKEN)
(FEEL ISABEL SOBRESALTO)
[RF0](RONDA): 1.00
[RF1](PUNTOS): 3.00
[RF2](MINUS-RONDA): -1.00
                                   9            [1]

********* SELECTED ACTION ****************************
GESTIONAR ISABEL JUAN CITA SOBRESALTO ILUSION NEUTRAL ACEPTAR BUENA ABIERTA TOKEN

********* NEXT STATE *********************************
(NOT-ESCENARIOTERMINADO CITA)
(NOT-ESCENARIOTERMINADO ENFADO)
(NOT-ESCENARIOTERMINADO SPOILER)
(IN ISABEL CITA)
(IN JUAN CITA)
(FEEL ISABEL SOBRESALTO)
(TURNO JUAN TOKEN)
(FEEL JUAN ILUSION)
[RF0](RONDA): 2.00
[RF1](PUNTOS): 4.00
[RF2](MINUS-RONDA): -2.00
                                   8            [1]

********* SELECTED ACTION ****************************
GESTIONAR JUAN ISABEL CITA ILUSION ENAMORAMIENTO SOBRESALTO INVITAR-AL-CINE BUENA ABIERTA TOKEN

********* NEXT STATE *********************************
(NOT-ESCENARIOTERMINADO CITA)
(NOT-ESCENARIOTERMINADO ENFADO)
(NOT-ESCENARIOTERMINADO SPOILER)
(IN ISABEL CITA)
(IN JUAN CITA)
(FEEL JUAN ILUSION)
(TURNO ISABEL TOKEN)
(FEEL ISABEL ENAMORAMIENTO)
[RF0](RONDA): 3.00
[RF1](PUNTOS): 5.00
[RF2](MINUS-RONDA): -3.00
                                   7            [1][2]

********* SELECTED ACTION ****************************
GESTIONAR JUAN ISABEL CITA ALEGRIA AMOR ENAMORAMIENTO OFRECERSE-A-PAGAR BUENA ABIERTA TOKEN

********* NEXT STATE *********************************
(NOT-ESCENARIOTERMINADO CITA)
(NOT-ESCENARIOTERMINADO ENFADO)
(NOT-ESCENARIOTERMINADO SPOILER)
(IN ISABEL CITA)
(IN JUAN CITA)
(FEEL JUAN ALEGRIA)
(TURNO ISABEL TOKEN)
(FEEL ISABEL AMOR)
[RF0](RONDA): 5.00
[RF1](PUNTOS): 7.00
[RF2](MINUS-RONDA): -5.00
                                   5            [1]

********* SELECTED ACTION ****************************
FINALIZARESCENARIO ISABEL JUAN CITA

********* NEXT STATE *********************************
(NOT-ESCENARIOTERMINADO ENFADO)
(NOT-ESCENARIOTERMINADO SPOILER)
(IN ISABEL CITA)
(IN JUAN CITA)
(FEEL JUAN ALEGRIA)
(TURNO ISABEL TOKEN)
(FEEL ISABEL AMOR)
(ESCENARIOTERMINADO CITA)
[RF0](RONDA): 5.00
[RF1](PUNTOS): 7.00
[RF2](MINUS-RONDA): -5.00
                                   4            [1][2][3][4][5]

********* SELECTED ACTION ****************************
FINALIZARESCENARIO ISABEL JUAN ENFADO

********* NEXT STATE *********************************
(NOT-ESCENARIOTERMINADO SPOILER)
(ESCENARIOTERMINADO CITA)
(IN ISABEL ENFADO)
(IN JUAN ENFADO)
(FEEL ISABEL SUSTO)
(TURNO JUAN TOKEN)
(FEEL JUAN AGRESIVIDAD)
(ESCENARIOTERMINADO ENFADO)
[RF0](RONDA): 3.00
[RF1](PUNTOS): 22.00
[RF2](MINUS-RONDA): -3.00
                                   3            [1][2][3][4]

********* SELECTED ACTION ****************************
GESTIONAR JUAN ISABEL SPOILER TRISTEZA CULPABILIDAD AGRESIVIDAD DECIR-QUE-ERA-MENTIRA REGULAR ABIERTA TOKEN

********* NEXT STATE *********************************
(NOT-ESCENARIOTERMINADO SPOILER)
(ESCENARIOTERMINADO CITA)
(ESCENARIOTERMINADO ENFADO)
(IN ISABEL SPOILER)
(IN JUAN SPOILER)
(FEEL JUAN TRISTEZA)
(TURNO ISABEL TOKEN)
(FEEL ISABEL CULPABILIDAD)
[RF0](RONDA): 3.00
[RF1](PUNTOS): 35.00
[RF2](MINUS-RONDA): -3.00
                                   2            [1]

********* SELECTED ACTION ****************************
GESTIONAR ISABEL JUAN SPOILER CULPABILIDAD CONFIANZA TRISTEZA INVITAR-A-CENAR REGULAR ABIERTA TOKEN

********* NEXT STATE *********************************
(NOT-ESCENARIOTERMINADO SPOILER)
(ESCENARIOTERMINADO CITA)
(ESCENARIOTERMINADO ENFADO)
(IN ISABEL SPOILER)
(IN JUAN SPOILER)
(FEEL ISABEL CULPABILIDAD)
(TURNO JUAN TOKEN)
(FEEL JUAN CONFIANZA)
[RF0](RONDA): 4.00
[RF1](PUNTOS): 38.00
[RF2](MINUS-RONDA): -4.00
                                   1            [1]

********* SELECTED ACTION ****************************
FINALIZARESCENARIO ISABEL JUAN SPOILER

********* NEXT STATE *********************************
(ESCENARIOTERMINADO CITA)
(ESCENARIOTERMINADO ENFADO)
(IN ISABEL SPOILER)
(IN JUAN SPOILER)
(FEEL ISABEL CULPABILIDAD)
(TURNO JUAN TOKEN)
(FEEL JUAN CONFIANZA)
(ESCENARIOTERMINADO SPOILER)
[RF0](RONDA): 4.00
[RF1](PUNTOS): 38.00
[RF2](MINUS-RONDA): -4.00
                                   0            

FINAL FLUENTS VALUES EHC
[RF0](RONDA): 4.00
[RF1](PUNTOS): 38.00
[RF2](MINUS-RONDA): -4.00

ff: found legal plan as follows

step    0: GESTIONAR JUAN ISABEL CITA NEUTRAL SOBRESALTO NEUTRAL PEDIR-CITA REGULAR ABIERTA TOKEN
        1: GESTIONAR ISABEL JUAN CITA SOBRESALTO ILUSION NEUTRAL ACEPTAR BUENA ABIERTA TOKEN
        2: GESTIONAR JUAN ISABEL CITA ILUSION ENAMORAMIENTO SOBRESALTO INVITAR-AL-CINE BUENA ABIERTA TOKEN
        3: GESTIONAR ISABEL JUAN CITA ENAMORAMIENTO ALEGRIA ILUSION ACEPTAR-PROPUESTA BUENA ABIERTA TOKEN
        4: GESTIONAR JUAN ISABEL CITA ALEGRIA AMOR ENAMORAMIENTO OFRECERSE-A-PAGAR BUENA ABIERTA TOKEN
        5: FINALIZARESCENARIO ISABEL JUAN CITA
        6: CAMBIOESCENARIO ISABEL JUAN AMOR ALEGRIA CITA ENFADO
        7: GESTIONAR ISABEL JUAN ENFADO NEUTRAL TEMOR NEUTRAL CASTIGAR MALA ABIERTA TOKEN
        8: GESTIONAR JUAN ISABEL ENFADO TEMOR SUSTO NEUTRAL IRSE-DE-CASA MALA ABIERTA TOKEN
        9: GESTIONAR ISABEL JUAN ENFADO SUSTO AGRESIVIDAD TEMOR GRITAR MALA ABIERTA TOKEN
       10: FINALIZARESCENARIO ISABEL JUAN ENFADO
       11: CAMBIOESCENARIO ISABEL JUAN SUSTO AGRESIVIDAD ENFADO SPOILER
       12: GESTIONAR JUAN ISABEL SPOILER NEUTRAL AGRESIVIDAD NEUTRAL SPOILER MALA ABIERTA TOKEN
       13: GESTIONAR ISABEL JUAN SPOILER AGRESIVIDAD TRISTEZA NEUTRAL DEVOLVER-SPOILER MALA ABIERTA TOKEN
       14: GESTIONAR JUAN ISABEL SPOILER TRISTEZA CULPABILIDAD AGRESIVIDAD DECIR-QUE-ERA-MENTIRA REGULAR ABIERTA TOKEN
       15: GESTIONAR ISABEL JUAN SPOILER CULPABILIDAD CONFIANZA TRISTEZA INVITAR-A-CENAR REGULAR ABIERTA TOKEN
       16: FINALIZARESCENARIO ISABEL JUAN SPOILER
     

time spent:    0.44 seconds instantiating 9554 easy, 0 hard action templates
               1.79 seconds reachability analysis, yielding 42 facts and 4066 actions
               0.00 seconds creating final representation with 42 relevant facts, 3 relevant fluents
               0.01 seconds computing LNF
               0.02 seconds building connectivity graph
               0.00 seconds searching, evaluating 29 states, to a max depth of 5
               2.26 seconds total time

